%YAML 1.1
%TAG !u! tag:unity3d.com,2011:
--- !u!21 &2100000
Material:
  serializedVersion: 6
  m_ObjectHideFlags: 0
  m_CorrespondingSourceObject: {fileID: 0}
  m_PrefabInstance: {fileID: 0}
  m_PrefabAsset: {fileID: 0}
  m_Name: Water - Simple
  m_Shader: {fileID: -6465566751694194690, guid: 27b042674da390c46a1ff4cc2317d5f2, type: 3}
  m_ShaderKeywords: 
  m_LightmapFlags: 4
  m_EnableInstancingVariants: 0
  m_DoubleSidedGI: 0
  m_CustomRenderQueue: -1
  stringTagMap: {}
  disabledShaderPasses: []
  m_SavedProperties:
    serializedVersion: 3
    m_TexEnvs:
    - unity_Lightmaps:
        m_Texture: {fileID: 0}
        m_Scale: {x: 1, y: 1}
        m_Offset: {x: 0, y: 0}
    - unity_LightmapsInd:
        m_Texture: {fileID: 0}
        m_Scale: {x: 1, y: 1}
        m_Offset: {x: 0, y: 0}
    - unity_ShadowMasks:
        m_Texture: {fileID: 0}
        m_Scale: {x: 1, y: 1}
        m_Offset: {x: 0, y: 0}
    m_Ints: []
    m_Floats:
    - Vector1_29A8EAB: 2
    - Vector1_3C2CF0EB: 0
    - Vector1_53B9698E: 0
    - Vector1_6D9DC178: 2.59
    - Vector1_93DCFAA9: 4
    - Vector1_95BBCBE0: 50
    - Vector1_C5543ECF: 0.75
    - Vector1_E23798DE: 0.3
    m_Colors:
    - Color_A271762B: {r: 0.051486313, g: 0.47462583, b: 0.8396226, a: 0.9215686}
    - Color_AFFD055F: {r: 0.2783019, g: 0.7749823, b: 1, a: 1}
    - Color_E0824245: {r: 0.029592399, g: 0.3479478, b: 0.8962264, a: 0.4823529}
  m_BuildTextureStacks: []
