%YAML 1.1
%TAG !u! tag:unity3d.com,2011:
--- !u!1001 &174655575043043795
PrefabInstance:
  m_ObjectHideFlags: 0
  serializedVersion: 2
  m_Modification:
    m_TransformParent: {fileID: 0}
    m_Modifications:
    - target: {fileID: 376181645712502602, guid: 5ee0722ef7fa7e1448402e190acfd78f, type: 3}
      propertyPath: m_Enabled
      value: 0
      objectReference: {fileID: 0}
    - target: {fileID: 4886112900356005086, guid: 5ee0722ef7fa7e1448402e190acfd78f, type: 3}
      propertyPath: m_Name
      value: BarUI_PowerMeterV
      objectReference: {fileID: 0}
    - target: {fileID: 4886112900356005086, guid: 5ee0722ef7fa7e1448402e190acfd78f, type: 3}
      propertyPath: m_IsActive
      value: 1
      objectReference: {fileID: 0}
    - target: {fileID: 4886112900356005087, guid: 5ee0722ef7fa7e1448402e190acfd78f, type: 3}
      propertyPath: m_LocalPosition.x
      value: 0
      objectReference: {fileID: 0}
    - target: {fileID: 4886112900356005087, guid: 5ee0722ef7fa7e1448402e190acfd78f, type: 3}
      propertyPath: m_LocalPosition.y
      value: 0
      objectReference: {fileID: 0}
    - target: {fileID: 4886112900356005087, guid: 5ee0722ef7fa7e1448402e190acfd78f, type: 3}
      propertyPath: m_LocalPosition.z
      value: 0
      objectReference: {fileID: 0}
    - target: {fileID: 4886112900356005087, guid: 5ee0722ef7fa7e1448402e190acfd78f, type: 3}
      propertyPath: m_LocalRotation.x
      value: 0
      objectReference: {fileID: 0}
    - target: {fileID: 4886112900356005087, guid: 5ee0722ef7fa7e1448402e190acfd78f, type: 3}
      propertyPath: m_LocalRotation.y
      value: 0
      objectReference: {fileID: 0}
    - target: {fileID: 4886112900356005087, guid: 5ee0722ef7fa7e1448402e190acfd78f, type: 3}
      propertyPath: m_LocalRotation.z
      value: 0.7071068
      objectReference: {fileID: 0}
    - target: {fileID: 4886112900356005087, guid: 5ee0722ef7fa7e1448402e190acfd78f, type: 3}
      propertyPath: m_LocalRotation.w
      value: 0.7071068
      objectReference: {fileID: 0}
    - target: {fileID: 4886112900356005087, guid: 5ee0722ef7fa7e1448402e190acfd78f, type: 3}
      propertyPath: m_RootOrder
      value: 0
      objectReference: {fileID: 0}
    - target: {fileID: 4886112900356005087, guid: 5ee0722ef7fa7e1448402e190acfd78f, type: 3}
      propertyPath: m_LocalEulerAnglesHint.x
      value: 0
      objectReference: {fileID: 0}
    - target: {fileID: 4886112900356005087, guid: 5ee0722ef7fa7e1448402e190acfd78f, type: 3}
      propertyPath: m_LocalEulerAnglesHint.y
      value: 0
      objectReference: {fileID: 0}
    - target: {fileID: 4886112900356005087, guid: 5ee0722ef7fa7e1448402e190acfd78f, type: 3}
      propertyPath: m_LocalEulerAnglesHint.z
      value: 90
      objectReference: {fileID: 0}
    - target: {fileID: 4886112900356005087, guid: 5ee0722ef7fa7e1448402e190acfd78f, type: 3}
      propertyPath: m_AnchoredPosition.x
      value: -45
      objectReference: {fileID: 0}
    - target: {fileID: 4886112900356005087, guid: 5ee0722ef7fa7e1448402e190acfd78f, type: 3}
      propertyPath: m_AnchoredPosition.y
      value: 96
      objectReference: {fileID: 0}
    - target: {fileID: 4886112900356005087, guid: 5ee0722ef7fa7e1448402e190acfd78f, type: 3}
      propertyPath: m_AnchorMin.x
      value: 1
      objectReference: {fileID: 0}
    - target: {fileID: 4886112900356005087, guid: 5ee0722ef7fa7e1448402e190acfd78f, type: 3}
      propertyPath: m_AnchorMin.y
      value: 0.5
      objectReference: {fileID: 0}
    - target: {fileID: 4886112900356005087, guid: 5ee0722ef7fa7e1448402e190acfd78f, type: 3}
      propertyPath: m_AnchorMax.x
      value: 1
      objectReference: {fileID: 0}
    - target: {fileID: 4886112900356005087, guid: 5ee0722ef7fa7e1448402e190acfd78f, type: 3}
      propertyPath: m_AnchorMax.y
      value: 0.5
      objectReference: {fileID: 0}
    - target: {fileID: 4886112900356005087, guid: 5ee0722ef7fa7e1448402e190acfd78f, type: 3}
      propertyPath: m_Pivot.x
      value: 0.5
      objectReference: {fileID: 0}
    - target: {fileID: 4886112900356005087, guid: 5ee0722ef7fa7e1448402e190acfd78f, type: 3}
      propertyPath: m_Pivot.y
      value: 0.5
      objectReference: {fileID: 0}
    - target: {fileID: 4886112900733728279, guid: 5ee0722ef7fa7e1448402e190acfd78f, type: 3}
      propertyPath: m_IsActive
      value: 0
      objectReference: {fileID: 0}
    - target: {fileID: 4886112900733728280, guid: 5ee0722ef7fa7e1448402e190acfd78f, type: 3}
      propertyPath: m_AnchorMin.y
      value: 1
      objectReference: {fileID: 0}
    - target: {fileID: 4886112900733728280, guid: 5ee0722ef7fa7e1448402e190acfd78f, type: 3}
      propertyPath: m_AnchorMax.y
      value: 1
      objectReference: {fileID: 0}
    - target: {fileID: 4886112900733728280, guid: 5ee0722ef7fa7e1448402e190acfd78f, type: 3}
      propertyPath: m_AnchoredPosition.x
      value: 50
      objectReference: {fileID: 0}
    - target: {fileID: 4886112900733728280, guid: 5ee0722ef7fa7e1448402e190acfd78f, type: 3}
      propertyPath: m_AnchoredPosition.y
      value: -40.05
      objectReference: {fileID: 0}
    - target: {fileID: 4886112900967269691, guid: 5ee0722ef7fa7e1448402e190acfd78f, type: 3}
      propertyPath: m_FillAmount
      value: 0.596
      objectReference: {fileID: 0}
    - target: {fileID: 4886112900967269691, guid: 5ee0722ef7fa7e1448402e190acfd78f, type: 3}
      propertyPath: m_Color.r
      value: 1
      objectReference: {fileID: 0}
    - target: {fileID: 4886112900967269691, guid: 5ee0722ef7fa7e1448402e190acfd78f, type: 3}
      propertyPath: m_Color.b
      value: 0.7607843
      objectReference: {fileID: 0}
    - target: {fileID: 4886112900967269691, guid: 5ee0722ef7fa7e1448402e190acfd78f, type: 3}
      propertyPath: m_Color.g
      value: 0
      objectReference: {fileID: 0}
    - target: {fileID: 4886112900967269691, guid: 5ee0722ef7fa7e1448402e190acfd78f, type: 3}
      propertyPath: m_Sprite
      value: 
      objectReference: {fileID: 21300000, guid: 5a753635b09256a4db190729b911ef96, type: 3}
    - target: {fileID: 4886112901270914341, guid: 5ee0722ef7fa7e1448402e190acfd78f, type: 3}
      propertyPath: m_IsActive
      value: 0
      objectReference: {fileID: 0}
    - target: {fileID: 4886112901605363168, guid: 5ee0722ef7fa7e1448402e190acfd78f, type: 3}
      propertyPath: m_Color.a
      value: 1
      objectReference: {fileID: 0}
    - target: {fileID: 4886112901605363168, guid: 5ee0722ef7fa7e1448402e190acfd78f, type: 3}
      propertyPath: m_Color.r
      value: 1
      objectReference: {fileID: 0}
    - target: {fileID: 4886112901605363168, guid: 5ee0722ef7fa7e1448402e190acfd78f, type: 3}
      propertyPath: m_Color.g
      value: 1
      objectReference: {fileID: 0}
    - target: {fileID: 4886112901605363168, guid: 5ee0722ef7fa7e1448402e190acfd78f, type: 3}
      propertyPath: m_Color.b
      value: 1
      objectReference: {fileID: 0}
    - target: {fileID: 4886112901605363168, guid: 5ee0722ef7fa7e1448402e190acfd78f, type: 3}
      propertyPath: m_Sprite
      value: 
      objectReference: {fileID: 21300000, guid: 4df9db95f67be1645a0d07b82a03fed4, type: 3}
    - target: {fileID: 4886112901605363199, guid: 5ee0722ef7fa7e1448402e190acfd78f, type: 3}
      propertyPath: m_AnchorMin.y
      value: 0.5
      objectReference: {fileID: 0}
    - target: {fileID: 4886112901605363199, guid: 5ee0722ef7fa7e1448402e190acfd78f, type: 3}
      propertyPath: m_AnchorMax.y
      value: 0.5
      objectReference: {fileID: 0}
    - target: {fileID: 4886112901605363199, guid: 5ee0722ef7fa7e1448402e190acfd78f, type: 3}
      propertyPath: m_AnchoredPosition.x
      value: -46
      objectReference: {fileID: 0}
    - target: {fileID: 4886112901605363199, guid: 5ee0722ef7fa7e1448402e190acfd78f, type: 3}
      propertyPath: m_AnchoredPosition.y
      value: 0
      objectReference: {fileID: 0}
    - target: {fileID: 4886112901605363199, guid: 5ee0722ef7fa7e1448402e190acfd78f, type: 3}
      propertyPath: m_AnchorMin.x
      value: 0.5
      objectReference: {fileID: 0}
    - target: {fileID: 4886112901605363199, guid: 5ee0722ef7fa7e1448402e190acfd78f, type: 3}
      propertyPath: m_AnchorMax.x
      value: 0.5
      objectReference: {fileID: 0}
    - target: {fileID: 4886112901605363199, guid: 5ee0722ef7fa7e1448402e190acfd78f, type: 3}
      propertyPath: m_SizeDelta.y
      value: 50
      objectReference: {fileID: 0}
    - target: {fileID: 4886112901605363199, guid: 5ee0722ef7fa7e1448402e190acfd78f, type: 3}
      propertyPath: m_SizeDelta.x
      value: 430
      objectReference: {fileID: 0}
    - target: {fileID: 4897474098905417131, guid: 5ee0722ef7fa7e1448402e190acfd78f, type: 3}
      propertyPath: perCentPerSec
      value: 5000
      objectReference: {fileID: 0}
    m_RemovedComponents: []
  m_SourcePrefab: {fileID: 100100000, guid: 5ee0722ef7fa7e1448402e190acfd78f, type: 3}
