%YAML 1.1
%TAG !u! tag:unity3d.com,2011:
--- !u!21 &2100000
Material:
  serializedVersion: 6
  m_ObjectHideFlags: 0
  m_CorrespondingSourceObject: {fileID: 0}
  m_PrefabInstance: {fileID: 0}
  m_PrefabAsset: {fileID: 0}
  m_Name: Shader Graphs_Jelly Shader Modify Bari
  m_Shader: {fileID: -6465566751694194690, guid: 2ec589578ee074a99994e22b8987db00,
    type: 3}
  m_ShaderKeywords: 
  m_LightmapFlags: 4
  m_EnableInstancingVariants: 0
  m_DoubleSidedGI: 0
  m_CustomRenderQueue: -1
  stringTagMap: {}
  disabledShaderPasses: []
  m_SavedProperties:
    serializedVersion: 3
    m_TexEnvs:
    - unity_Lightmaps:
        m_Texture: {fileID: 0}
        m_Scale: {x: 1, y: 1}
        m_Offset: {x: 0, y: 0}
    - unity_LightmapsInd:
        m_Texture: {fileID: 0}
        m_Scale: {x: 1, y: 1}
        m_Offset: {x: 0, y: 0}
    - unity_ShadowMasks:
        m_Texture: {fileID: 0}
        m_Scale: {x: 1, y: 1}
        m_Offset: {x: 0, y: 0}
    m_Ints: []
    m_Floats:
    - Height: 0.1
    - Height_Cap: 0.2
    - LowerWidth_CAp: 0
    - LowerWidth_Cap: 0.441
    - Scale: 10
    - Speed: 0.2
    - WaveLength: 1
    - Width: 0.05
    - Width_Cap: 0.05
    m_Colors:
    - Center: {r: 0, g: 0, b: 0, a: 0}
    - _Color: {r: 0.8207547, g: 0.04258631, b: 0.04258631, a: 0}
  m_BuildTextureStacks: []
