%YAML 1.1
%TAG !u! tag:unity3d.com,2011:
--- !u!21 &2100000
Material:
  serializedVersion: 6
  m_ObjectHideFlags: 0
  m_CorrespondingSourceObject: {fileID: 0}
  m_PrefabInstance: {fileID: 0}
  m_PrefabAsset: {fileID: 0}
  m_Name: CFXM4_FireBulk_Round AB+AddSoft VColor
  m_Shader: {fileID: 4800000, guid: 9eced5b8a4173204b8826c6bb83eea20, type: 3}
  m_ShaderKeywords: 
  m_LightmapFlags: 4
  m_EnableInstancingVariants: 0
  m_DoubleSidedGI: 0
  m_CustomRenderQueue: -1
  stringTagMap: {}
  disabledShaderPasses: []
  m_SavedProperties:
    serializedVersion: 3
    m_TexEnvs:
    - _MainTex:
        m_Texture: {fileID: 2800000, guid: 6293eccc3e30166409600a3dd5e365f8, type: 3}
        m_Scale: {x: 1, y: 1}
        m_Offset: {x: 0, y: 0}
    m_Ints: []
    m_Floats:
    - _InvFade: 1
    m_Colors:
    - _BaseColor: {r: 0, g: 0, b: 0, a: 0.39215687}
    - _Color: {r: 1, g: 1, b: 1, a: 1}
    - _MaskColor: {r: 0.33088237, g: 0, b: 0, a: 0.39215687}
    - _TintColor: {r: 0.5019608, g: 0.5019608, b: 0.5019608, a: 0.5019608}
  m_BuildTextureStacks: []
